<?xml version="1.0" encoding="UTF-8"?>
<svg xmlns="http://www.w3.org/2000/svg" xmlns:xlink="http://www.w3.org/1999/xlink" width="65pt" height="84pt" viewBox="0 0 65 84" version="1.1">
<g id="surface1">
<path style=" stroke:none;fill-rule:evenodd;fill:rgb(30.589294%,0%,55.271912%);fill-opacity:1;" d="M 20.242188 42.472656 L 29.441406 42.472656 L 29.441406 38.792969 L 20.242188 38.792969 L 20.242188 42.472656 "/>
<path style=" stroke:none;fill-rule:evenodd;fill:rgb(30.589294%,0%,55.271912%);fill-opacity:1;" d="M 36.800781 42.472656 L 45.996094 42.472656 L 45.996094 38.792969 L 33.121094 38.792969 L 33.121094 55.351562 L 36.800781 55.351562 L 36.800781 42.472656 "/>
<path style=" stroke:none;fill-rule:evenodd;fill:rgb(30.589294%,0%,55.271912%);fill-opacity:1;" d="M 29.441406 17.128906 L 29.441406 13.371094 C 20.019531 15.101562 12.882812 23.355469 12.882812 33.273438 L 12.882812 42.472656 L 16.5625 42.472656 L 16.5625 33.273438 C 16.5625 25.394531 22.066406 18.800781 29.441406 17.128906 "/>
<path style=" stroke:none;fill-rule:evenodd;fill:rgb(30.589294%,0%,55.271912%);fill-opacity:1;" d="M 49.675781 38.792969 L 49.675781 49.828125 C 49.675781 58.972656 42.265625 66.386719 33.121094 66.386719 L 33.121094 70.066406 C 44.296875 70.066406 53.355469 61.007812 53.355469 49.828125 L 53.355469 38.792969 L 49.675781 38.792969 "/>
</g>
</svg>
