<?xml version="1.0" encoding="UTF-8"?>
<svg xmlns="http://www.w3.org/2000/svg" xmlns:xlink="http://www.w3.org/1999/xlink" width="216pt" height="84pt" viewBox="0 0 216 84" version="1.1">
<g id="background">
  <rect width="100%" height="100%" fill="rgb(78,0,148)" />
</g>
<g id="surface1">
<path style=" stroke:none;fill-rule:evenodd;fill:rgb(255,255,255);fill-opacity:1;" d="M 20.242188 42.472656 L 29.441406 42.472656 L 29.441406 38.792969 L 20.242188 38.792969 L 20.242188 42.472656 "/>
<path style=" stroke:none;fill-rule:evenodd;fill:rgb(255,255,255);fill-opacity:1;" d="M 36.800781 42.472656 L 45.996094 42.472656 L 45.996094 38.792969 L 33.121094 38.792969 L 33.121094 55.351562 L 36.800781 55.351562 L 36.800781 42.472656 "/>
<path style=" stroke:none;fill-rule:evenodd;fill:rgb(255,255,255);fill-opacity:1;" d="M 29.441406 17.128906 L 29.441406 13.371094 C 20.019531 15.101562 12.882812 23.355469 12.882812 33.273438 L 12.882812 42.472656 L 16.5625 42.472656 L 16.5625 33.273438 C 16.5625 25.394531 22.066406 18.800781 29.441406 17.128906 "/>
<path style=" stroke:none;fill-rule:evenodd;fill:rgb(255,255,255);fill-opacity:1;" d="M 49.675781 38.792969 L 49.675781 49.828125 C 49.675781 58.972656 42.265625 66.386719 33.121094 66.386719 L 33.121094 70.066406 C 44.296875 70.066406 53.355469 61.007812 53.355469 49.828125 L 53.355469 38.792969 L 49.675781 38.792969 "/>
<path style=" stroke:none;fill-rule:evenodd;fill:rgb(255,255,255);fill-opacity:1;" d="M 68.195312 40.496094 L 68.195312 50.472656 L 66.242188 50.472656 L 66.242188 40.496094 L 62.402344 40.496094 L 62.402344 38.789062 L 72.03125 38.789062 L 72.03125 40.496094 L 68.195312 40.496094 "/>
<path style=" stroke:none;fill-rule:evenodd;fill:rgb(255,255,255);fill-opacity:1;" d="M 77.828125 45.15625 L 77.828125 48.277344 C 77.828125 49.261719 77.910156 49.949219 78.039062 50.472656 L 76.351562 50.472656 C 76.269531 50.113281 76.234375 49.703125 76.234375 49.308594 L 76.203125 49.308594 C 75.59375 50.195312 74.660156 50.65625 73.398438 50.65625 C 71.65625 50.65625 70.574219 49.605469 70.574219 48.175781 C 70.574219 46.816406 71.378906 45.929688 73.773438 45.550781 C 74.445312 45.4375 75.429688 45.339844 76.023438 45.304688 L 76.023438 44.976562 C 76.023438 43.746094 75.347656 43.253906 74.398438 43.253906 C 73.363281 43.253906 72.804688 43.828125 72.757812 44.714844 L 70.917969 44.714844 C 71 43.140625 72.148438 41.890625 74.398438 41.890625 C 76.597656 41.890625 77.828125 42.976562 77.828125 45.15625 Z M 76.023438 46.519531 C 75.464844 46.550781 74.660156 46.632812 74.101562 46.734375 C 72.90625 46.929688 72.460938 47.289062 72.460938 48.046875 C 72.460938 48.785156 72.984375 49.277344 73.9375 49.277344 C 74.511719 49.277344 75.070312 49.09375 75.449219 48.71875 C 75.890625 48.257812 76.023438 47.816406 76.023438 46.929688 L 76.023438 46.519531 "/>
<path style=" stroke:none;fill-rule:evenodd;fill:rgb(255,255,255);fill-opacity:1;" d="M 91.484375 45.339844 L 91.484375 50.472656 L 89.613281 50.472656 L 89.613281 45.519531 C 89.613281 44.042969 89.039062 43.453125 88.105469 43.453125 C 87.003906 43.453125 86.347656 44.386719 86.347656 45.976562 L 86.347656 50.472656 L 84.476562 50.472656 L 84.476562 45.320312 C 84.476562 44.140625 83.953125 43.453125 82.984375 43.453125 C 81.867188 43.453125 81.230469 44.402344 81.230469 46.011719 L 81.230469 50.472656 L 79.355469 50.472656 L 79.355469 42.136719 L 81.148438 42.136719 L 81.148438 43.140625 L 81.179688 43.140625 C 81.769531 42.335938 82.507812 41.941406 83.492188 41.941406 C 84.640625 41.941406 85.527344 42.464844 85.953125 43.453125 C 86.5625 42.5 87.367188 41.941406 88.628906 41.941406 C 90.402344 41.941406 91.484375 43.089844 91.484375 45.339844 "/>
<path style=" stroke:none;fill-rule:evenodd;fill:rgb(255,255,255);fill-opacity:1;" d="M 100.847656 46.304688 C 100.847656 48.964844 99.503906 50.671875 97.386719 50.671875 C 96.351562 50.671875 95.417969 50.195312 94.941406 49.390625 L 94.910156 49.390625 L 94.910156 53.511719 L 93.039062 53.511719 L 93.039062 42.136719 L 94.859375 42.136719 L 94.859375 43.285156 L 94.890625 43.285156 C 95.386719 42.433594 96.320312 41.925781 97.371094 41.925781 C 99.488281 41.925781 100.847656 43.648438 100.847656 46.304688 Z M 94.808594 46.304688 C 94.808594 48.109375 95.613281 49.226562 96.828125 49.226562 C 98.09375 49.226562 98.894531 48.078125 98.894531 46.304688 C 98.894531 44.535156 98.09375 43.386719 96.828125 43.386719 C 95.613281 43.386719 94.808594 44.484375 94.808594 46.304688 "/>
<path style=" stroke:none;fill-rule:evenodd;fill:rgb(255,255,255);fill-opacity:1;" d="M 107.476562 47.964844 L 109.398438 47.964844 C 109.085938 49.457031 107.742188 50.71875 105.558594 50.71875 C 103.015625 50.71875 101.519531 48.898438 101.519531 46.207031 C 101.519531 43.746094 102.996094 41.890625 105.523438 41.890625 C 107.429688 41.890625 108.808594 42.992188 109.265625 44.730469 C 109.429688 45.257812 109.496094 45.878906 109.496094 46.683594 L 103.375 46.683594 C 103.441406 48.570312 104.394531 49.34375 105.558594 49.34375 C 106.625 49.34375 107.3125 48.769531 107.476562 47.964844 Z M 103.410156 45.453125 L 107.625 45.453125 C 107.496094 43.992188 106.640625 43.269531 105.523438 43.269531 C 104.394531 43.269531 103.574219 44.007812 103.410156 45.453125 "/>
<path style=" stroke:none;fill-rule:evenodd;fill:rgb(255,255,255);fill-opacity:1;" d="M 115.433594 42.105469 L 115.433594 43.761719 C 115.203125 43.714844 114.992188 43.695312 114.777344 43.695312 C 113.285156 43.695312 112.464844 44.648438 112.464844 46.386719 L 112.464844 50.472656 L 110.59375 50.472656 L 110.59375 42.136719 L 112.335938 42.136719 L 112.335938 43.367188 L 112.367188 43.367188 C 112.925781 42.464844 113.710938 42.023438 114.746094 42.023438 C 114.960938 42.023438 115.222656 42.054688 115.433594 42.105469 "/>
<path style=" stroke:none;fill-rule:evenodd;fill:rgb(255,255,255);fill-opacity:1;" d="M 121.53125 47.964844 L 123.449219 47.964844 C 123.140625 49.457031 121.792969 50.71875 119.609375 50.71875 C 117.066406 50.71875 115.574219 48.898438 115.574219 46.207031 C 115.574219 43.746094 117.050781 41.890625 119.578125 41.890625 C 121.480469 41.890625 122.859375 42.992188 123.320312 44.730469 C 123.484375 45.257812 123.550781 45.878906 123.550781 46.683594 L 117.429688 46.683594 C 117.496094 48.570312 118.445312 49.34375 119.609375 49.34375 C 120.679688 49.34375 121.367188 48.769531 121.53125 47.964844 Z M 117.460938 45.453125 L 121.679688 45.453125 C 121.546875 43.992188 120.695312 43.269531 119.578125 43.269531 C 118.445312 43.269531 117.625 44.007812 117.460938 45.453125 "/>
<path style=" stroke:none;fill-rule:evenodd;fill:rgb(255,255,255);fill-opacity:1;" d="M 130.140625 47.964844 L 132.058594 47.964844 C 131.746094 49.457031 130.402344 50.71875 128.21875 50.71875 C 125.675781 50.71875 124.183594 48.898438 124.183594 46.207031 C 124.183594 43.746094 125.660156 41.890625 128.1875 41.890625 C 130.089844 41.890625 131.46875 42.992188 131.929688 44.730469 C 132.09375 45.257812 132.15625 45.878906 132.15625 46.683594 L 126.035156 46.683594 C 126.101562 48.570312 127.054688 49.34375 128.21875 49.34375 C 129.285156 49.34375 129.976562 48.769531 130.140625 47.964844 Z M 126.070312 45.453125 L 130.285156 45.453125 C 130.15625 43.992188 129.300781 43.269531 128.1875 43.269531 C 127.054688 43.269531 126.234375 44.007812 126.070312 45.453125 "/>
<path style=" stroke:none;fill-rule:evenodd;fill:rgb(255,255,255);fill-opacity:1;" d="M 140.589844 45.371094 L 140.589844 50.472656 L 138.71875 50.472656 L 138.71875 45.535156 C 138.71875 44.042969 138.078125 43.453125 137.03125 43.453125 C 135.964844 43.453125 135.125 44.253906 135.125 45.847656 L 135.125 50.472656 L 133.253906 50.472656 L 133.253906 42.136719 L 135.027344 42.136719 L 135.027344 43.222656 L 135.0625 43.222656 C 135.585938 42.464844 136.453125 41.941406 137.554688 41.941406 C 139.441406 41.941406 140.589844 43.089844 140.589844 45.371094 "/>
<path style=" stroke:none;fill-rule:evenodd;fill:rgb(255,255,255);fill-opacity:1;" d="M 149.714844 50.835938 C 148.925781 52.953125 148.007812 53.59375 146.070312 53.59375 C 145.710938 53.59375 145.382812 53.542969 145.136719 53.476562 L 145.136719 51.949219 C 145.347656 52.015625 145.628906 52.066406 145.921875 52.066406 C 146.941406 52.066406 147.382812 51.6875 147.777344 50.539062 L 144.726562 42.136719 L 146.726562 42.136719 L 148.8125 48.339844 L 148.84375 48.339844 L 150.992188 42.136719 L 152.929688 42.136719 L 149.714844 50.835938 "/>
<path style=" stroke:none;fill-rule:evenodd;fill:rgb(255,255,255);fill-opacity:1;" d="M 153.496094 50.472656 L 153.496094 38.789062 L 155.367188 38.789062 L 155.367188 50.472656 L 153.496094 50.472656 "/>
<path style=" stroke:none;fill-rule:evenodd;fill:rgb(255,255,255);fill-opacity:1;" d="M 156.933594 40.578125 L 156.933594 38.789062 L 158.804688 38.789062 L 158.804688 40.578125 Z M 156.933594 50.472656 L 156.933594 42.136719 L 158.804688 42.136719 L 158.804688 50.472656 L 156.933594 50.472656 "/>
<path style=" stroke:none;fill-rule:evenodd;fill:rgb(255,255,255);fill-opacity:1;" d="M 168.148438 46.304688 C 168.148438 49.015625 166.570312 50.71875 164.046875 50.71875 C 161.519531 50.71875 159.925781 49.015625 159.925781 46.304688 C 159.925781 43.597656 161.519531 41.890625 164.046875 41.890625 C 166.570312 41.890625 168.148438 43.597656 168.148438 46.304688 Z M 161.894531 46.304688 C 161.894531 48.109375 162.714844 49.242188 164.046875 49.242188 C 165.375 49.242188 166.195312 48.109375 166.195312 46.304688 C 166.195312 44.5 165.375 43.367188 164.046875 43.367188 C 162.714844 43.367188 161.894531 44.5 161.894531 46.304688 "/>
<path style=" stroke:none;fill-rule:evenodd;fill:rgb(255,255,255);fill-opacity:1;" d="M 177.085938 46.304688 C 177.085938 48.964844 175.738281 50.671875 173.621094 50.671875 C 172.589844 50.671875 171.652344 50.195312 171.175781 49.390625 L 171.144531 49.390625 L 171.144531 53.511719 L 169.273438 53.511719 L 169.273438 42.136719 L 171.09375 42.136719 L 171.09375 43.285156 L 171.128906 43.285156 C 171.621094 42.433594 172.554688 41.925781 173.605469 41.925781 C 175.722656 41.925781 177.085938 43.648438 177.085938 46.304688 Z M 171.046875 46.304688 C 171.046875 48.109375 171.851562 49.226562 173.0625 49.226562 C 174.328125 49.226562 175.132812 48.078125 175.132812 46.304688 C 175.132812 44.535156 174.328125 43.386719 173.0625 43.386719 C 171.851562 43.386719 171.046875 44.484375 171.046875 46.304688 "/>
<path style=" stroke:none;fill-rule:evenodd;fill:rgb(255,255,255);fill-opacity:1;" d="M 178.25 40.578125 L 178.25 38.789062 L 180.121094 38.789062 L 180.121094 40.578125 Z M 178.25 50.472656 L 178.25 42.136719 L 180.121094 42.136719 L 180.121094 50.472656 L 178.25 50.472656 "/>
<path style=" stroke:none;fill-rule:evenodd;fill:rgb(255,255,255);fill-opacity:1;" d="M 188.054688 44.730469 L 186.25 44.730469 C 186.25 43.730469 185.660156 43.253906 184.660156 43.253906 C 183.789062 43.253906 183.28125 43.632812 183.28125 44.238281 C 183.28125 44.960938 183.855469 45.109375 185.167969 45.4375 C 186.691406 45.832031 188.316406 46.191406 188.316406 48.175781 C 188.316406 49.6875 186.972656 50.71875 184.824219 50.71875 C 182.589844 50.71875 181.230469 49.71875 181.214844 47.734375 L 183.117188 47.734375 C 183.117188 48.75 183.738281 49.324219 184.855469 49.324219 C 185.808594 49.324219 186.363281 48.914062 186.363281 48.292969 C 186.363281 47.4375 185.710938 47.273438 184.265625 46.914062 C 182.871094 46.570312 181.410156 46.257812 181.410156 44.386719 C 181.410156 42.910156 182.722656 41.890625 184.675781 41.890625 C 186.792969 41.890625 188.039062 42.875 188.054688 44.730469 "/>
<path style=" stroke:none;fill-rule:evenodd;fill:rgb(255,255,255);fill-opacity:1;" d="M 193.5 48.964844 L 193.5 50.425781 C 193.222656 50.507812 192.796875 50.574219 192.449219 50.574219 C 190.695312 50.574219 189.921875 49.835938 189.921875 48.011719 L 189.921875 43.566406 L 188.527344 43.566406 L 188.527344 42.136719 L 189.921875 42.136719 L 189.921875 40.054688 L 191.792969 40.054688 L 191.792969 42.136719 L 193.417969 42.136719 L 193.417969 43.566406 L 191.792969 43.566406 L 191.792969 47.734375 C 191.792969 48.667969 192.105469 49.046875 192.925781 49.046875 C 193.140625 49.046875 193.367188 49.015625 193.5 48.964844 "/>
<path style=" stroke:none;fill-rule:evenodd;fill:rgb(255,255,255);fill-opacity:1;" d="M 201.976562 46.304688 C 201.976562 49.015625 200.398438 50.71875 197.871094 50.71875 C 195.347656 50.71875 193.753906 49.015625 193.753906 46.304688 C 193.753906 43.597656 195.347656 41.890625 197.871094 41.890625 C 200.398438 41.890625 201.976562 43.597656 201.976562 46.304688 Z M 195.722656 46.304688 C 195.722656 48.109375 196.542969 49.242188 197.871094 49.242188 C 199.203125 49.242188 200.023438 48.109375 200.023438 46.304688 C 200.023438 44.5 199.203125 43.367188 197.871094 43.367188 C 196.542969 43.367188 195.722656 44.5 195.722656 46.304688 "/>
<path style=" stroke:none;fill-rule:evenodd;fill:rgb(255,255,255);fill-opacity:1;" d="M 68.195312 57.054688 L 68.195312 67.03125 L 66.242188 67.03125 L 66.242188 57.054688 L 62.402344 57.054688 L 62.402344 55.347656 L 72.03125 55.347656 L 72.03125 57.054688 L 68.195312 57.054688 "/>
<path style=" stroke:none;fill-rule:evenodd;fill:rgb(255,255,255);fill-opacity:1;" d="M 77.828125 61.714844 L 77.828125 64.832031 C 77.828125 65.816406 77.910156 66.503906 78.039062 67.03125 L 76.351562 67.03125 C 76.269531 66.667969 76.234375 66.257812 76.234375 65.863281 L 76.203125 65.863281 C 75.59375 66.75 74.660156 67.210938 73.398438 67.210938 C 71.65625 67.210938 70.574219 66.160156 70.574219 64.734375 C 70.574219 63.371094 71.378906 62.484375 73.773438 62.105469 C 74.445312 61.992188 75.429688 61.894531 76.023438 61.859375 L 76.023438 61.53125 C 76.023438 60.300781 75.347656 59.808594 74.398438 59.808594 C 73.363281 59.808594 72.804688 60.382812 72.757812 61.269531 L 70.917969 61.269531 C 71 59.695312 72.148438 58.449219 74.398438 58.449219 C 76.597656 58.449219 77.828125 59.53125 77.828125 61.714844 Z M 76.023438 63.074219 C 75.464844 63.109375 74.660156 63.191406 74.101562 63.289062 C 72.90625 63.484375 72.460938 63.847656 72.460938 64.601562 C 72.460938 65.339844 72.984375 65.832031 73.9375 65.832031 C 74.511719 65.832031 75.070312 65.652344 75.449219 65.273438 C 75.890625 64.816406 76.023438 64.371094 76.023438 63.484375 L 76.023438 63.074219 "/>
<path style=" stroke:none;fill-rule:evenodd;fill:rgb(255,255,255);fill-opacity:1;" d="M 91.484375 61.894531 L 91.484375 67.03125 L 89.613281 67.03125 L 89.613281 62.074219 C 89.613281 60.597656 89.039062 60.007812 88.105469 60.007812 C 87.003906 60.007812 86.347656 60.941406 86.347656 62.535156 L 86.347656 67.03125 L 84.476562 67.03125 L 84.476562 61.878906 C 84.476562 60.695312 83.953125 60.007812 82.984375 60.007812 C 81.867188 60.007812 81.230469 60.957031 81.230469 62.566406 L 81.230469 67.03125 L 79.355469 67.03125 L 79.355469 58.695312 L 81.148438 58.695312 L 81.148438 59.695312 L 81.179688 59.695312 C 81.769531 58.890625 82.507812 58.496094 83.492188 58.496094 C 84.640625 58.496094 85.527344 59.023438 85.953125 60.007812 C 86.5625 59.054688 87.367188 58.496094 88.628906 58.496094 C 90.402344 58.496094 91.484375 59.644531 91.484375 61.894531 "/>
<path style=" stroke:none;fill-rule:evenodd;fill:rgb(255,255,255);fill-opacity:1;" d="M 100.847656 62.863281 C 100.847656 65.519531 99.503906 67.226562 97.386719 67.226562 C 96.351562 67.226562 95.417969 66.75 94.941406 65.945312 L 94.910156 65.945312 L 94.910156 70.066406 L 93.039062 70.066406 L 93.039062 58.695312 L 94.859375 58.695312 L 94.859375 59.84375 L 94.890625 59.84375 C 95.386719 58.988281 96.320312 58.480469 97.371094 58.480469 C 99.488281 58.480469 100.847656 60.203125 100.847656 62.863281 Z M 94.808594 62.863281 C 94.808594 64.667969 95.613281 65.78125 96.828125 65.78125 C 98.09375 65.78125 98.894531 64.632812 98.894531 62.863281 C 98.894531 61.089844 98.09375 59.941406 96.828125 59.941406 C 95.613281 59.941406 94.808594 61.039062 94.808594 62.863281 "/>
<path style=" stroke:none;fill-rule:evenodd;fill:rgb(255,255,255);fill-opacity:1;" d="M 107.476562 64.519531 L 109.398438 64.519531 C 109.085938 66.011719 107.742188 67.277344 105.558594 67.277344 C 103.015625 67.277344 101.519531 65.453125 101.519531 62.765625 C 101.519531 60.300781 102.996094 58.449219 105.523438 58.449219 C 107.429688 58.449219 108.808594 59.546875 109.265625 61.285156 C 109.429688 61.8125 109.496094 62.4375 109.496094 63.238281 L 103.375 63.238281 C 103.441406 65.125 104.394531 65.898438 105.558594 65.898438 C 106.625 65.898438 107.3125 65.324219 107.476562 64.519531 Z M 103.410156 62.007812 L 107.625 62.007812 C 107.496094 60.546875 106.640625 59.828125 105.523438 59.828125 C 104.394531 59.828125 103.574219 60.566406 103.410156 62.007812 "/>
<path style=" stroke:none;fill-rule:evenodd;fill:rgb(255,255,255);fill-opacity:1;" d="M 115.433594 58.660156 L 115.433594 60.320312 C 115.203125 60.269531 114.992188 60.253906 114.777344 60.253906 C 113.285156 60.253906 112.464844 61.207031 112.464844 62.945312 L 112.464844 67.03125 L 110.59375 67.03125 L 110.59375 58.695312 L 112.335938 58.695312 L 112.335938 59.925781 L 112.367188 59.925781 C 112.925781 59.023438 113.710938 58.578125 114.746094 58.578125 C 114.960938 58.578125 115.222656 58.613281 115.433594 58.660156 "/>
<path style=" stroke:none;fill-rule:evenodd;fill:rgb(255,255,255);fill-opacity:1;" d="M 121.53125 64.519531 L 123.449219 64.519531 C 123.140625 66.011719 121.792969 67.277344 119.609375 67.277344 C 117.066406 67.277344 115.574219 65.453125 115.574219 62.765625 C 115.574219 60.300781 117.050781 58.449219 119.578125 58.449219 C 121.480469 58.449219 122.859375 59.546875 123.320312 61.285156 C 123.484375 61.8125 123.550781 62.4375 123.550781 63.238281 L 117.429688 63.238281 C 117.496094 65.125 118.445312 65.898438 119.609375 65.898438 C 120.679688 65.898438 121.367188 65.324219 121.53125 64.519531 Z M 117.460938 62.007812 L 121.679688 62.007812 C 121.546875 60.546875 120.695312 59.828125 119.578125 59.828125 C 118.445312 59.828125 117.625 60.566406 117.460938 62.007812 "/>
<path style=" stroke:none;fill-rule:evenodd;fill:rgb(255,255,255);fill-opacity:1;" d="M 137.613281 62.617188 C 137.613281 65.652344 136.019531 67.277344 133.132812 67.277344 C 130.242188 67.277344 128.636719 65.652344 128.636719 62.617188 L 128.636719 55.347656 L 130.605469 55.347656 L 130.605469 62.550781 C 130.605469 64.519531 131.523438 65.519531 133.132812 65.519531 C 134.738281 65.519531 135.660156 64.519531 135.660156 62.550781 L 135.660156 55.347656 L 137.613281 55.347656 L 137.613281 62.617188 "/>
<path style=" stroke:none;fill-rule:evenodd;fill:rgb(255,255,255);fill-opacity:1;" d="M 146.632812 61.925781 L 146.632812 67.03125 L 144.761719 67.03125 L 144.761719 62.089844 C 144.761719 60.597656 144.121094 60.007812 143.074219 60.007812 C 142.007812 60.007812 141.167969 60.8125 141.167969 62.402344 L 141.167969 67.03125 L 139.300781 67.03125 L 139.300781 58.695312 L 141.070312 58.695312 L 141.070312 59.777344 L 141.105469 59.777344 C 141.628906 59.023438 142.496094 58.496094 143.597656 58.496094 C 145.484375 58.496094 146.632812 59.644531 146.632812 61.925781 "/>
<path style=" stroke:none;fill-rule:evenodd;fill:rgb(255,255,255);fill-opacity:1;" d="M 148.171875 57.136719 L 148.171875 55.347656 L 150.042969 55.347656 L 150.042969 57.136719 Z M 148.171875 67.03125 L 148.171875 58.695312 L 150.042969 58.695312 L 150.042969 67.03125 L 148.171875 67.03125 "/>
<path style=" stroke:none;fill-rule:evenodd;fill:rgb(255,255,255);fill-opacity:1;" d="M 153.503906 67.03125 L 150.601562 58.695312 L 152.554688 58.695312 L 153.636719 62.089844 C 154.027344 63.304688 154.375 64.503906 154.703125 65.734375 L 154.734375 65.734375 C 155.0625 64.503906 155.40625 63.304688 155.800781 62.089844 L 156.886719 58.695312 L 158.835938 58.695312 L 155.933594 67.03125 L 153.503906 67.03125 "/>
<path style=" stroke:none;fill-rule:evenodd;fill:rgb(255,255,255);fill-opacity:1;" d="M 164.570312 64.519531 L 166.488281 64.519531 C 166.179688 66.011719 164.832031 67.277344 162.652344 67.277344 C 160.105469 67.277344 158.613281 65.453125 158.613281 62.765625 C 158.613281 60.300781 160.089844 58.449219 162.617188 58.449219 C 164.519531 58.449219 165.898438 59.546875 166.359375 61.285156 C 166.523438 61.8125 166.589844 62.4375 166.589844 63.238281 L 160.46875 63.238281 C 160.535156 65.125 161.484375 65.898438 162.652344 65.898438 C 163.71875 65.898438 164.40625 65.324219 164.570312 64.519531 Z M 160.5 62.007812 L 164.71875 62.007812 C 164.585938 60.546875 163.734375 59.828125 162.617188 59.828125 C 161.484375 59.828125 160.664062 60.566406 160.5 62.007812 "/>
<path style=" stroke:none;fill-rule:evenodd;fill:rgb(255,255,255);fill-opacity:1;" d="M 172.527344 58.660156 L 172.527344 60.320312 C 172.296875 60.269531 172.085938 60.253906 171.871094 60.253906 C 170.378906 60.253906 169.558594 61.207031 169.558594 62.945312 L 169.558594 67.03125 L 167.6875 67.03125 L 167.6875 58.695312 L 169.425781 58.695312 L 169.425781 59.925781 L 169.460938 59.925781 C 170.015625 59.023438 170.804688 58.578125 171.839844 58.578125 C 172.050781 58.578125 172.3125 58.613281 172.527344 58.660156 "/>
<path style=" stroke:none;fill-rule:evenodd;fill:rgb(255,255,255);fill-opacity:1;" d="M 179.648438 61.285156 L 177.84375 61.285156 C 177.84375 60.285156 177.253906 59.808594 176.25 59.808594 C 175.382812 59.808594 174.871094 60.1875 174.871094 60.792969 C 174.871094 61.515625 175.445312 61.664062 176.757812 61.992188 C 178.285156 62.386719 179.910156 62.746094 179.910156 64.734375 C 179.910156 66.242188 178.5625 67.277344 176.414062 67.277344 C 174.183594 67.277344 172.820312 66.277344 172.804688 64.289062 L 174.707031 64.289062 C 174.707031 65.308594 175.332031 65.882812 176.449219 65.882812 C 177.398438 65.882812 177.957031 65.472656 177.957031 64.847656 C 177.957031 63.992188 177.300781 63.832031 175.855469 63.46875 C 174.460938 63.125 173.003906 62.8125 173.003906 60.941406 C 173.003906 59.464844 174.3125 58.449219 176.265625 58.449219 C 178.382812 58.449219 179.632812 59.433594 179.648438 61.285156 "/>
<path style=" stroke:none;fill-rule:evenodd;fill:rgb(255,255,255);fill-opacity:1;" d="M 181.035156 57.136719 L 181.035156 55.347656 L 182.90625 55.347656 L 182.90625 57.136719 Z M 181.035156 67.03125 L 181.035156 58.695312 L 182.90625 58.695312 L 182.90625 67.03125 L 181.035156 67.03125 "/>
<path style=" stroke:none;fill-rule:evenodd;fill:rgb(255,255,255);fill-opacity:1;" d="M 188.535156 65.519531 L 188.535156 66.980469 C 188.257812 67.0625 187.828125 67.128906 187.484375 67.128906 C 185.730469 67.128906 184.960938 66.390625 184.960938 64.570312 L 184.960938 60.121094 L 183.5625 60.121094 L 183.5625 58.695312 L 184.960938 58.695312 L 184.960938 56.609375 L 186.828125 56.609375 L 186.828125 58.695312 L 188.453125 58.695312 L 188.453125 60.121094 L 186.828125 60.121094 L 186.828125 64.289062 C 186.828125 65.226562 187.140625 65.601562 187.960938 65.601562 C 188.175781 65.601562 188.40625 65.570312 188.535156 65.519531 "/>
<path style=" stroke:none;fill-rule:evenodd;fill:rgb(255,255,255);fill-opacity:1;" d="M 193.707031 67.390625 C 192.921875 69.507812 192.003906 70.148438 190.066406 70.148438 C 189.703125 70.148438 189.375 70.097656 189.128906 70.03125 L 189.128906 68.507812 C 189.34375 68.574219 189.621094 68.621094 189.917969 68.621094 C 190.933594 68.621094 191.378906 68.246094 191.773438 67.09375 L 188.71875 58.695312 L 190.722656 58.695312 L 192.804688 64.898438 L 192.839844 64.898438 L 194.988281 58.695312 L 196.925781 58.695312 L 193.707031 67.390625 "/>
</g>
</svg>
